id;quantity_1;final_product1_id;inter_product_id;long_group_id
100;1;501;51;30
130;1;531;51;32
101;1;502;52;30
115;1;516;52;31
131;1;532;52;32
102;1;503;53;30
116;1;517;53;31
132;1;533;53;32
103;1;504;54;30
117;1;518;54;31
104;1;505;55;30
118;1;519;55;31
133;1;534;55;32
119;1;520;56;31
134;1;535;56;32
141;1;542;56;33
120;1;521;57;31
135;1;536;57;32
105;1;506;58;30
121;1;522;58;31
136;1;537;58;32
142;1;543;58;33
106;1;507;59;30
123;1;524;59;31
143;1;544;59;33
107;1;508;60;30
144;1;545;60;33
124;1;525;61;31
145;1;546;61;33
108;1;509;62;30
125;1;526;62;31
146;1;547;62;33
137;1;538;63;32
147;1;548;63;33
138;1;539;64;32
148;1;549;64;33
109;1;510;65;30
139;1;540;65;32
149;1;550;65;33
110;1;511;66;30
150;1;551;66;33
111;1;512;67;30
126;1;527;67;31
140;1;541;67;32
151;1;552;67;33
112;1;513;68;30
127;1;528;68;31
152;1;553;68;33
113;1;514;69;30
128;1;529;69;31
153;1;554;69;33
114;1;515;70;30
129;1;530;70;31
154;1;555;70;33
